-- Merging decision tree log ---
manifest
ADDED from /home/tricia/droid2019/topic10-content-providers/UseMediaStoreContentProvider1/app/src/main/AndroidManifest.xml:2:1-26:12
INJECTED from /home/tricia/droid2019/topic10-content-providers/UseMediaStoreContentProvider1/app/src/main/AndroidManifest.xml:2:1-26:12
INJECTED from /home/tricia/droid2019/topic10-content-providers/UseMediaStoreContentProvider1/app/src/main/AndroidManifest.xml:2:1-26:12
INJECTED from /home/tricia/droid2019/topic10-content-providers/UseMediaStoreContentProvider1/app/src/main/AndroidManifest.xml:2:1-26:12
INJECTED from /home/tricia/droid2019/topic10-content-providers/UseMediaStoreContentProvider1/app/src/main/AndroidManifest.xml:2:1-26:12
INJECTED from /home/tricia/droid2019/topic10-content-providers/UseMediaStoreContentProvider1/app/src/main/AndroidManifest.xml:2:1-26:12
INJECTED from /home/tricia/droid2019/topic10-content-providers/UseMediaStoreContentProvider1/app/src/main/AndroidManifest.xml:2:1-26:12
	package
		ADDED from /home/tricia/droid2019/topic10-content-providers/UseMediaStoreContentProvider1/app/src/main/AndroidManifest.xml:3:5-56
		INJECTED from /home/tricia/droid2019/topic10-content-providers/UseMediaStoreContentProvider1/app/src/main/AndroidManifest.xml
		INJECTED from /home/tricia/droid2019/topic10-content-providers/UseMediaStoreContentProvider1/app/src/main/AndroidManifest.xml
	android:versionName
		ADDED from /home/tricia/droid2019/topic10-content-providers/UseMediaStoreContentProvider1/app/src/main/AndroidManifest.xml:5:5-30
		INJECTED from /home/tricia/droid2019/topic10-content-providers/UseMediaStoreContentProvider1/app/src/main/AndroidManifest.xml
		INJECTED from /home/tricia/droid2019/topic10-content-providers/UseMediaStoreContentProvider1/app/src/main/AndroidManifest.xml
	xmlns:android
		ADDED from /home/tricia/droid2019/topic10-content-providers/UseMediaStoreContentProvider1/app/src/main/AndroidManifest.xml:2:11-69
	android:versionCode
		ADDED from /home/tricia/droid2019/topic10-content-providers/UseMediaStoreContentProvider1/app/src/main/AndroidManifest.xml:4:5-28
		INJECTED from /home/tricia/droid2019/topic10-content-providers/UseMediaStoreContentProvider1/app/src/main/AndroidManifest.xml
		INJECTED from /home/tricia/droid2019/topic10-content-providers/UseMediaStoreContentProvider1/app/src/main/AndroidManifest.xml
uses-permission#android.permission.READ_EXTERNAL_STORAGE
ADDED from /home/tricia/droid2019/topic10-content-providers/UseMediaStoreContentProvider1/app/src/main/AndroidManifest.xml:7:6-81
	android:name
		ADDED from /home/tricia/droid2019/topic10-content-providers/UseMediaStoreContentProvider1/app/src/main/AndroidManifest.xml:7:23-78
uses-permission#android.permission.READ_INTERNAL_STORAGE
ADDED from /home/tricia/droid2019/topic10-content-providers/UseMediaStoreContentProvider1/app/src/main/AndroidManifest.xml:8:5-80
	android:name
		ADDED from /home/tricia/droid2019/topic10-content-providers/UseMediaStoreContentProvider1/app/src/main/AndroidManifest.xml:8:22-77
application
ADDED from /home/tricia/droid2019/topic10-content-providers/UseMediaStoreContentProvider1/app/src/main/AndroidManifest.xml:10:5-24:19
	android:label
		ADDED from /home/tricia/droid2019/topic10-content-providers/UseMediaStoreContentProvider1/app/src/main/AndroidManifest.xml:13:9-41
	android:icon
		ADDED from /home/tricia/droid2019/topic10-content-providers/UseMediaStoreContentProvider1/app/src/main/AndroidManifest.xml:12:9-45
	android:allowBackup
		ADDED from /home/tricia/droid2019/topic10-content-providers/UseMediaStoreContentProvider1/app/src/main/AndroidManifest.xml:11:9-35
	android:theme
		ADDED from /home/tricia/droid2019/topic10-content-providers/UseMediaStoreContentProvider1/app/src/main/AndroidManifest.xml:14:9-40
activity#cs518.sample.usemediastorecontentprovider.MainActivity
ADDED from /home/tricia/droid2019/topic10-content-providers/UseMediaStoreContentProvider1/app/src/main/AndroidManifest.xml:15:9-23:20
	android:label
		ADDED from /home/tricia/droid2019/topic10-content-providers/UseMediaStoreContentProvider1/app/src/main/AndroidManifest.xml:17:13-45
	android:name
		ADDED from /home/tricia/droid2019/topic10-content-providers/UseMediaStoreContentProvider1/app/src/main/AndroidManifest.xml:16:13-41
intent-filter#action:name:android.intent.action.MAIN+category:name:android.intent.category.LAUNCHER
ADDED from /home/tricia/droid2019/topic10-content-providers/UseMediaStoreContentProvider1/app/src/main/AndroidManifest.xml:18:13-22:29
action#android.intent.action.MAIN
ADDED from /home/tricia/droid2019/topic10-content-providers/UseMediaStoreContentProvider1/app/src/main/AndroidManifest.xml:19:17-69
	android:name
		ADDED from /home/tricia/droid2019/topic10-content-providers/UseMediaStoreContentProvider1/app/src/main/AndroidManifest.xml:19:25-66
category#android.intent.category.LAUNCHER
ADDED from /home/tricia/droid2019/topic10-content-providers/UseMediaStoreContentProvider1/app/src/main/AndroidManifest.xml:21:17-77
	android:name
		ADDED from /home/tricia/droid2019/topic10-content-providers/UseMediaStoreContentProvider1/app/src/main/AndroidManifest.xml:21:27-74
uses-sdk
INJECTED from /home/tricia/droid2019/topic10-content-providers/UseMediaStoreContentProvider1/app/src/main/AndroidManifest.xml reason: use-sdk injection requested
INJECTED from /home/tricia/droid2019/topic10-content-providers/UseMediaStoreContentProvider1/app/src/main/AndroidManifest.xml
INJECTED from /home/tricia/droid2019/topic10-content-providers/UseMediaStoreContentProvider1/app/src/main/AndroidManifest.xml
INJECTED from /home/tricia/droid2019/topic10-content-providers/UseMediaStoreContentProvider1/app/src/main/AndroidManifest.xml
INJECTED from /home/tricia/droid2019/topic10-content-providers/UseMediaStoreContentProvider1/app/src/main/AndroidManifest.xml
	android:targetSdkVersion
		INJECTED from /home/tricia/droid2019/topic10-content-providers/UseMediaStoreContentProvider1/app/src/main/AndroidManifest.xml
		ADDED from /home/tricia/droid2019/topic10-content-providers/UseMediaStoreContentProvider1/app/src/main/AndroidManifest.xml
		INJECTED from /home/tricia/droid2019/topic10-content-providers/UseMediaStoreContentProvider1/app/src/main/AndroidManifest.xml
	android:minSdkVersion
		INJECTED from /home/tricia/droid2019/topic10-content-providers/UseMediaStoreContentProvider1/app/src/main/AndroidManifest.xml
		ADDED from /home/tricia/droid2019/topic10-content-providers/UseMediaStoreContentProvider1/app/src/main/AndroidManifest.xml
		INJECTED from /home/tricia/droid2019/topic10-content-providers/UseMediaStoreContentProvider1/app/src/main/AndroidManifest.xml
